Data Analysis Exercise – Murphy John’s Data Analysis Portfolio
…
# CHECK FOR DUPLICATES BEFORE PIVOTING
synthetic_dat2 %>%
  group_by(years, sex, age, measure) %>%
  summarise(n = n(), .groups = "drop") %>%
  filter(n > 1)

# A tibble: 288 × 5
   years sex      age measure                    n
   <dbl> <fct>  <dbl> <chr>                  <int>
 1     1 Female     1 Hypertension               2
 2     1 Female     1 Obesity                    2
 3     1 Female     2 Hypertension               2
 4     1 Female     3 High Total Cholesterol     3
 5     1 Female     3 Hypertension               3
 6     1 Female     4 High Total Cholesterol     3
 7     1 Female     4 Hypertension               3
 8     1 Female     4 Obesity                    4
 9     1 Female     5 Obesity                    2
10     1 Female     6 High Total Cholesterol     2
# ℹ 278 more rows
…
